{
  "contents": [
    {
      "id": 22,
      "content": "test content 10",
      "link": "https://dev.csbroker.io",
      "isRead": true,
      "createdAt": "2023-02-21T15:47:23.826774"
    },
    {
      "id": 21,
      "content": "test content 9",
      "link": "https://dev.csbroker.io",
      "isRead": false,
      "createdAt": "2023-02-25T15:47:23.826119"
    },
    {
      "id": 20,
      "content": "test content 8",
      "link": "https://dev.csbroker.io",
      "isRead": false,
      "createdAt": "2023-02-21T15:47:23.825442"
    },
    {
      "id": 19,
      "content": "test content 7",
      "link": "https://dev.csbroker.io",
      "isRead": false,
      "createdAt": "2023-02-21T15:47:23.824728"
    },
    {
      "id": 18,
      "content": "test content 6",
      "link": "https://dev.csbroker.io",
      "isRead": false,
      "createdAt": "2023-02-21T15:47:23.823685"
    },
    {
      "id": 17,
      "content": "test content 5",
      "link": "https://dev.csbroker.io",
      "isRead": false,
      "createdAt": "2023-02-21T15:47:23.823001"
    },
    {
      "id": 16,
      "content": "test content 4",
      "link": "https://dev.csbroker.io",
      "isRead": false,
      "createdAt": "2023-02-21T15:47:23.822313"
    },
    {
      "id": 15,
      "content": "test content 3",
      "link": "https://dev.csbroker.io",
      "isRead": false,
      "createdAt": "2023-02-21T15:47:23.821546"
    },
    {
      "id": 14,
      "content": "test content 2",
      "link": "https://dev.csbroker.io",
      "isRead": false,
      "createdAt": "2023-02-21T15:47:23.820763"
    },
    {
      "id": 13,
      "content": "test content 1",
      "link": "https://dev.csbroker.io",
      "isRead": false,
      "createdAt": "2023-02-21T15:47:23.819636"
    }
  ],
  "currentPage": 0,
  "totalPages": 3,
  "totalElements": 22,
  "numberOfElements": 10,
  "size": 10
}
